Tidy Models Parameter Tuning
…
# A tibble: 3 × 3
  .metric .estimator .estimate
  <chr>   <chr>          <dbl>
1 rmse    standard     119.   
2 rsq     standard       0.172
3 mae     standard     118.   

poisson_preds <- predict(poisson_fit, diabetes_test) %>%
  bind_cols(diabetes_test)

poisson_preds

# A tibble: 79 × 10
   .pred Pregnancies Glucose BloodPressure SkinThickness Insulin   BMI
   <dbl>       <dbl>   <dbl>         <dbl>         <dbl>   <dbl> <dbl>
 1  134.           5     166            72            19     175  25.8
 2  136.           0     118            84            47     230  45.8
 3  112.           1     103            30            38      83  43.3
 4  130.          13     145            82            19     110  22.2
 5  123.           4     103            60            33     192  24  
 6  147.           4     111            72            47     207  37.1
 7  113.           4     146            85            27     100  28.9
 8  132.           4     129            86            20     270  35.1
 9  110.           2     100            68            25      71  38.5
10  126.           4     123            80            15     176  32  
# ℹ 69 more rows
# ℹ 3 more variables: DiabetesPedigreeFunction <dbl>, Age <dbl>, Outcome <fct>
…
# A tibble: 3 × 3
  .metric .estimator .estimate
  <chr>   <chr>          <dbl>
1 rmse    standard      24.6  
2 rsq     standard       0.284
3 mae     standard      19.2  

poly_preds <- predict(lm_fit, diabetes_test) %>%
  bind_cols(diabetes_test)

poly_preds

# A tibble: 79 × 10
   .pred Pregnancies Glucose BloodPressure SkinThickness Insulin   BMI
   <dbl>       <dbl>   <dbl>         <dbl>         <dbl>   <dbl> <dbl>
 1  137.           5     166            72            19     175  25.8
 2  140.           0     118            84            47     230  45.8
 3  116.           1     103            30            38      83  43.3
 4  126.          13     145            82            19     110  22.2
 5  130.           4     103            60            33     192  24  
 6  144.           4     111            72            47     207  37.1
 7  114.           4     146            85            27     100  28.9
 8  132.           4     129            86            20     270  35.1
 9  110.           2     100            68            25      71  38.5
10  133.           4     123            80            15     176  32  
# ℹ 69 more rows
# ℹ 3 more variables: DiabetesPedigreeFunction <dbl>, Age <dbl>, Outcome <fct>
…
